%!PS
%%BoundingBox: 0 0 595 842
%%EndComments

%====================================================
% Setup the image
%====================================================
/pg_wid 595 def
/pg_dep 842 def

<< /PageSize [pg_wid pg_dep] >> setpagedevice

1 setlinejoin

%====================================================
% Draw the background
%====================================================
gsave
0 0 moveto
1000 0 lineto
1000 1000 lineto
0 1000 lineto
1 setgray 
fill
grestore

%====================================================
% Draw the path
%====================================================

/drawPath {

    2 dict begin

    /_offset exch def
    /_skip exch def

    0 1 points {

        /_p exch def
        /_a 360 _p _skip mul _offset add points div mul 90 add def

        _a cos rad mul
        _a sin rad mul 
    
        _p 0 eq { moveto } { lineto } ifelse

    } for

    end
} def

%====================================================
% Draw all internal stars
%====================================================
/drawAll {

    /rad exch def
    /points exch def
    /y exch def
    /x exch def

    gsave
    x y translate

    1 0 drawPath .82 setgray fill
    1 0 drawPath 0 setgray stroke
    
    1 1 points {
        
        /_offset exch 1 sub def
    
        1 1 points 2 div cvi {
    
            /_skip exch def
    
            _skip 0 gt points _skip div 2 ne and {
    
                _skip _offset drawPath
    
                0 setgray 
    
                stroke
            } if
        } for
    } for

    grestore
} def

170 150 5 80 drawAll
430 150 6 80 drawAll

170 400 7 80 drawAll
430 400 8 80 drawAll


170 650 9 80 drawAll
430 650 10 80 drawAll

